F1
5.00*3.00+11.40*4.00+2.00*10.00-6.80*3.00^2-128.25*4.00^2+12.00*3.00^5-2.50*3.00^10+20.00*5.00^1000
F2
F3
5.00*3.00+11.40*4.00+2.00*10.00-6.80*3.00^2-128.25*4.00^2+12.00*3.00^5-2.50*3.00^10+20.00*5.00^1000
F4
5.00*3.00+11.40*4.00+2.00*10.00-6.80*3.00^2-128.25*4.00^2+12.00*3.00^5-2.50*3.00^10+20.00*5.00^1000
F5

